{
    "packages":[
        {
          "name": "Piedra del penol",
          "country_id": 7,
          "employee_id": 93,
          "id": "1"
        },
        {
          "name": "cupiditate eos cumque",
          "country_id": 17,
          "employee_id": 93,
          "id": "2"
        },
        {
          "name": "rem suscipit unde",
          "country_id": 49,
          "employee_id": 46,
          "id": "3"
        },
        {
          "name": "totam repellendus doloribus",
          "country_id": 80,
          "employee_id": 95,
          "id": "4"
        },
        {
          "name": "distinctio doloribus saepe",
          "country_id": 62,
          "employee_id": 9,
          "id": "5"
        },
        {
          "name": "nihil neque iure",
          "country_id": 93,
          "employee_id": 54,
          "id": "6"
        },
        {
          "name": "voluptatibus deleniti repellendus",
          "country_id": 7,
          "employee_id": 69,
          "id": "7"
        },
        {
          "name": "quibusdam unde perspiciatis",
          "country_id": 12,
          "employee_id": 76,
          "id": "8"
        },
        {
          "name": "officiis quaerat assumenda",
          "country_id": 54,
          "employee_id": 28,
          "id": "9"
        },
        {
          "name": "voluptates cupiditate occaecati",
          "country_id": 76,
          "employee_id": 59,
          "id": "10"
        },
        {
          "name": "aut earum dolore",
          "country_id": 91,
          "employee_id": 24,
          "id": "11"
        },
        {
          "name": "nesciunt quaerat magni",
          "country_id": 63,
          "employee_id": 16,
          "id": "12"
        },
        {
          "name": "blanditiis doloribus id",
          "country_id": 33,
          "employee_id": 95,
          "id": "13"
        },
        {
          "name": "accusantium eius repellendus",
          "country_id": 50,
          "employee_id": 39,
          "id": "14"
        },
        {
          "name": "esse non modi",
          "country_id": 79,
          "employee_id": 9,
          "id": "15"
        },
        {
          "name": "beatae voluptatum consectetur",
          "country_id": 11,
          "employee_id": 55,
          "id": "16"
        }
    ]
}